<?xml version="1.0" encoding="UTF-8" standalone="no"?>
<!-- Created with Inkscape (http://www.inkscape.org/) -->

<svg
   width="128"
   height="69.517975"
   viewBox="0 0 33.866665 18.393298"
   version="1.1"
   id="svg5"
   inkscape:version="1.1 (ce6663b3b7, 2021-05-25)"
   sodipodi:docname="cids_logo2.svg"
   inkscape:export-filename="/home/kamikatze/Schreibtisch/cids_logo2.png"
   inkscape:export-xdpi="96"
   inkscape:export-ydpi="96"
   xmlns:inkscape="http://www.inkscape.org/namespaces/inkscape"
   xmlns:sodipodi="http://sodipodi.sourceforge.net/DTD/sodipodi-0.dtd"
   xmlns="http://www.w3.org/2000/svg"
   xmlns:svg="http://www.w3.org/2000/svg">
  <sodipodi:namedview
     id="namedview7"
     pagecolor="#505050"
     bordercolor="#eeeeee"
     borderopacity="1"
     inkscape:pageshadow="0"
     inkscape:pageopacity="0"
     inkscape:pagecheckerboard="0"
     inkscape:document-units="mm"
     showgrid="true"
     inkscape:zoom="5.6568542"
     inkscape:cx="58.424698"
     inkscape:cy="44.724504"
     inkscape:window-width="1920"
     inkscape:window-height="1043"
     inkscape:window-x="3840"
     inkscape:window-y="0"
     inkscape:window-maximized="1"
     inkscape:current-layer="layer1"
     inkscape:snap-global="true"
     inkscape:snap-bbox="true"
     inkscape:snap-object-midpoints="true"
     inkscape:snap-grids="false"
     lock-margins="true"
     fit-margin-top="0"
     fit-margin-left="0"
     fit-margin-right="0"
     fit-margin-bottom="0"
     units="px">
    <inkscape:grid
       type="xygrid"
       id="grid5974"
       originx="-11.307087"
       originy="-7.8618248" />
  </sodipodi:namedview>
  <defs
     id="defs2">
    <clipPath
       clipPathUnits="userSpaceOnUse"
       id="clipPath7642">
      <path
         id="path7644"
         style="fill:#370091;fill-rule:evenodd;stroke-width:0.273698"
         d="M 93.408082,51.803173 A 41.877525,19.791976 0 0 0 51.530536,71.595247 41.877525,19.791976 0 0 0 93.408082,91.387319 41.877525,19.791976 0 0 0 135.28563,71.595247 41.877525,19.791976 0 0 0 93.408082,51.803173 Z" />
    </clipPath>
    <clipPath
       clipPathUnits="userSpaceOnUse"
       id="clipPath7642-0">
      <path
         id="path7644-6"
         style="fill:#370091;fill-rule:evenodd;stroke-width:0.273698"
         d="M 93.408082,51.803173 A 41.877525,19.791976 0 0 0 51.530536,71.595247 41.877525,19.791976 0 0 0 93.408082,91.387319 41.877525,19.791976 0 0 0 135.28563,71.595247 41.877525,19.791976 0 0 0 93.408082,51.803173 Z" />
    </clipPath>
    <clipPath
       clipPathUnits="userSpaceOnUse"
       id="clipPath15287">
      <path
         style="fill:none;stroke:#ffffff;stroke-width:4.86883;stroke-linecap:butt;stroke-linejoin:miter;stroke-miterlimit:4;stroke-dasharray:none;stroke-opacity:1"
         d="M 54.409588,17.823596 68.005013,33.445343 38.66165,91.373724 -78.169457,61.956197 -35.485294,27.559091 4.5274387,4.4577139 54.409588,17.823596"
         id="path15289"
         sodipodi:nodetypes="ccccccc" />
    </clipPath>
    <clipPath
       clipPathUnits="userSpaceOnUse"
       id="clipPath7642-9">
      <path
         id="path7644-2"
         style="fill:#370091;fill-rule:evenodd;stroke-width:0.273698"
         d="M 93.408082,51.803173 A 41.877525,19.791976 0 0 0 51.530536,71.595247 41.877525,19.791976 0 0 0 93.408082,91.387319 41.877525,19.791976 0 0 0 135.28563,71.595247 41.877525,19.791976 0 0 0 93.408082,51.803173 Z" />
    </clipPath>
    <clipPath
       clipPathUnits="userSpaceOnUse"
       id="clipPath7642-9-9">
      <path
         id="path7644-2-3"
         style="fill:#370091;fill-rule:evenodd;stroke-width:0.273698"
         d="M 93.408082,51.803173 A 41.877525,19.791976 0 0 0 51.530536,71.595247 41.877525,19.791976 0 0 0 93.408082,91.387319 41.877525,19.791976 0 0 0 135.28563,71.595247 41.877525,19.791976 0 0 0 93.408082,51.803173 Z" />
    </clipPath>
    <clipPath
       clipPathUnits="userSpaceOnUse"
       id="clipPath17284">
      <circle
         style="fill:#370091;fill-opacity:1;fill-rule:evenodd;stroke:none;stroke-width:0.213905"
         id="circle17286"
         cx="158.88683"
         cy="106.4187"
         r="22.5" />
    </clipPath>
    <clipPath
       clipPathUnits="userSpaceOnUse"
       id="clipPath7642-9-1">
      <path
         id="path7644-2-0"
         style="fill:#370091;fill-rule:evenodd;stroke-width:0.273698"
         d="M 93.408082,51.803173 A 41.877525,19.791976 0 0 0 51.530536,71.595247 41.877525,19.791976 0 0 0 93.408082,91.387319 41.877525,19.791976 0 0 0 135.28563,71.595247 41.877525,19.791976 0 0 0 93.408082,51.803173 Z" />
    </clipPath>
    <clipPath
       clipPathUnits="userSpaceOnUse"
       id="clipPath17284-4">
      <circle
         style="fill:#370091;fill-opacity:1;fill-rule:evenodd;stroke:none;stroke-width:0.213905"
         id="circle17286-7"
         cx="158.88683"
         cy="106.4187"
         r="22.5" />
    </clipPath>
    <clipPath
       clipPathUnits="userSpaceOnUse"
       id="clipPath7642-9-1-6">
      <path
         id="path7644-2-0-5"
         style="fill:#370091;fill-rule:evenodd;stroke-width:0.273698"
         d="M 93.408082,51.803173 A 41.877525,19.791976 0 0 0 51.530536,71.595247 41.877525,19.791976 0 0 0 93.408082,91.387319 41.877525,19.791976 0 0 0 135.28563,71.595247 41.877525,19.791976 0 0 0 93.408082,51.803173 Z" />
    </clipPath>
    <clipPath
       clipPathUnits="userSpaceOnUse"
       id="clipPath7642-9-1-6-7">
      <path
         id="path7644-2-0-5-4"
         style="fill:#370091;fill-rule:evenodd;stroke-width:0.273698"
         d="M 93.408082,51.803173 A 41.877525,19.791976 0 0 0 51.530536,71.595247 41.877525,19.791976 0 0 0 93.408082,91.387319 41.877525,19.791976 0 0 0 135.28563,71.595247 41.877525,19.791976 0 0 0 93.408082,51.803173 Z" />
    </clipPath>
    <clipPath
       clipPathUnits="userSpaceOnUse"
       id="clipPath25004">
      <path
         style="fill:none;stroke:#ffffff;stroke-width:3.68355;stroke-linecap:butt;stroke-linejoin:miter;stroke-miterlimit:4;stroke-dasharray:none;stroke-opacity:1"
         d="m 305.60201,48.251655 3.35486,60.022275 -65.30949,0.2119 1.38839,-32.849947 23.99435,-27.384228 h 36.57189"
         id="path25006"
         sodipodi:nodetypes="cccccc" />
    </clipPath>
    <clipPath
       clipPathUnits="userSpaceOnUse"
       id="clipPath7642-9-1-6-3">
      <path
         id="path7644-2-0-5-6"
         style="fill:#370091;fill-rule:evenodd;stroke-width:0.273698"
         d="M 93.408082,51.803173 A 41.877525,19.791976 0 0 0 51.530536,71.595247 41.877525,19.791976 0 0 0 93.408082,91.387319 41.877525,19.791976 0 0 0 135.28563,71.595247 41.877525,19.791976 0 0 0 93.408082,51.803173 Z" />
    </clipPath>
    <clipPath
       clipPathUnits="userSpaceOnUse"
       id="clipPath2607">
      <path
         style="color:#000000;display:inline;fill:#ffffff;stroke-width:1;-inkscape-stroke:none"
         d="m 23.725683,11.957926 -11.673828,11.673829 1.142578,1.144531 28.012511,0.02538 0.009,-11.226553 v -1.617188 z"
         id="path2609"
         sodipodi:nodetypes="ccccccc" />
    </clipPath>
  </defs>
  <g
     inkscape:label="Ebene 1"
     inkscape:groupmode="layer"
     id="layer1"
     transform="translate(-11.307088,-7.8618246)"
     style="display:inline">
    <path
       id="path51-28-6-6"
       style="fill:#6100ff;fill-opacity:1;fill-rule:evenodd;stroke-width:0.418284"
       d="M 72,8 A 63.999982,30.247399 0 0 0 69.851562,8.035156 V 21.794922 L 30.423828,61.222656 a 63.999982,30.247399 0 0 0 9.72461,3.238282 L 94.652344,9.9570312 A 63.999982,30.247399 0 0 0 72,8 Z M 63.732422,8.2597656 A 63.999982,30.247399 0 0 0 8,38.248047 a 63.999982,30.247399 0 0 0 16.496094,20.25 L 63.732422,19.263672 Z M 101.7793,11.474609 47.15625,66.103516 a 63.999982,30.247399 0 0 0 11.277344,1.685546 L 87.138672,39.083984 H 135.94336 A 63.999982,30.247399 0 0 0 136,38.248047 63.999982,30.247399 0 0 0 101.7793,11.474609 Z M 89.671875,45.195312 66.5,68.367188 a 63.999982,30.247399 0 0 0 5.5,0.126953 63.999982,30.247399 0 0 0 62.25977,-23.298829 z"
       transform="matrix(0.26458333,0,0,0.26458333,9.1904217,5.745158)" />
    <g
       id="g2586"
       clip-path="url(#clipPath2607)"
       style="display:inline"
       transform="translate(9.1904217,5.745158)">
      <path
         id="path51-3-3-3"
         style="fill:#6100ff;fill-rule:evenodd;stroke:#6100ff;stroke-width:0.445"
         transform="translate(-9.1904217,-5.745158)"
         d="M 44.5353,16.784769 A 10.554378,9.2478542 0 0 1 33.980923,26.032623 10.554378,9.2478542 0 0 1 23.426545,16.784769 10.554378,9.2478542 0 0 1 33.980923,7.5369148 10.554378,9.2478542 0 0 1 44.5353,16.784769 Z" />
      <path
         d="m 155.98886,83.68485 c -0.0139,0.10157 -0.17349,1.340016 -0.36344,2.762213 -0.18204,1.41097 -0.33332,2.578444 -0.33035,2.597853 9.9e-4,0.0099 -0.30466,0.09861 -0.66753,0.196644 -0.37229,0.09955 -1.12845,0.3502 -1.68599,0.568933 -0.5481,0.217254 -1.00611,0.390176 -1.01703,0.381999 -0.009,0.0013 -0.80986,-0.864015 -1.78319,-1.910539 -0.96387,-1.048041 -1.79711,-1.938129 -1.84082,-1.970871 -0.0656,-0.04913 -3.13574,1.925038 -3.26485,2.094878 -0.0145,0.03221 0.44177,1.181584 1.01355,2.580864 0.90414,2.180923 1.02804,2.548712 0.91549,2.636372 -0.23312,0.186537 -1.13154,1.15588 -1.58057,1.705131 -0.23574,0.2963 -0.48892,0.605362 -0.56365,0.686949 -0.11614,0.128 -0.49617,0.04977 -2.68506,-0.582785 -1.3981,-0.401756 -2.58137,-0.728662 -2.62864,-0.72107 -0.0661,0.01062 -1.56969,2.856497 -1.75839,3.334128 -0.0339,0.09491 0.61862,0.626326 2.12325,1.726702 l 2.17173,1.599629 -0.20549,0.74872 c -0.11101,0.41545 -0.28373,1.18873 -0.37697,1.72063 -0.0933,0.5319 -0.16999,0.9816 -0.17652,1.00251 -0.0159,0.0224 -1.20851,0.33323 -2.6629,0.70594 -1.45434,0.37271 -2.67086,0.71716 -2.69478,0.75085 -0.0464,0.077 0.075,3.7952 0.12821,3.82642 0.0204,0.007 1.24972,0.12736 2.73522,0.2765 l 2.70391,0.26168 0.17571,0.70739 c 0.1683,0.65888 0.59943,1.96146 0.79337,2.40746 0.0753,0.17673 -0.16482,0.44396 -1.89105,2.08301 -1.0816,1.03853 -2.0028,1.92205 -2.03467,1.96694 -0.0574,0.0688 1.75831,3.01796 1.95809,3.18469 0.0344,0.0343 1.20968,-0.45272 2.6052,-1.08436 1.38606,-0.63013 2.52866,-1.14165 2.54107,-1.12378 0.17735,0.2101 1.5668,1.5079 1.98827,1.85774 l 0.56657,0.47563 -0.83892,2.62982 -0.84693,2.64103 0.32863,0.1858 c 0.18001,0.10037 0.9472,0.49405 1.70054,0.86018 l 1.37186,0.67435 1.66583,-2.2258 c 0.90723,-1.2292 1.73204,-2.23642 1.81714,-2.25009 0.0865,-0.004 0.49646,0.0793 0.91079,0.19173 0.41281,0.10274 1.11174,0.239 1.547,0.29832 l 0.7905,0.10178 0.13077,0.47602 c 0.078,0.25591 0.33386,1.42755 0.57915,2.59097 0.24672,1.17314 0.48571,2.16858 0.5324,2.22072 0.0841,0.10575 3.72096,-0.12035 3.80069,-0.23254 0.0241,-0.0339 0.13392,-0.83665 0.26261,-1.77184 0.46461,-3.62342 0.48411,-3.68618 0.70364,-3.77116 0.11043,-0.0376 0.57148,-0.19113 1.01644,-0.32224 0.45299,-0.1423 1.10511,-0.37628 1.44963,-0.531 l 0.63672,-0.27124 0.78505,0.82824 c 0.4283,0.45806 1.26149,1.34817 1.85177,1.97904 0.87989,0.94223 1.10305,1.13502 1.24694,1.06221 0.22459,-0.11557 2.98856,-2.00079 3.04589,-2.06964 0.0241,-0.0338 -0.41988,-1.16521 -0.98281,-2.50626 -0.55498,-1.3523 -1.0177,-2.48081 -1.02212,-2.50992 -0.006,-0.0386 0.28215,-0.37332 0.64283,-0.73941 0.3498,-0.37427 0.87802,-0.97601 1.17109,-1.34117 l 0.53028,-0.65176 1.01213,0.28478 c 0.55705,0.15908 1.73384,0.50691 2.61569,0.76294 l 1.602,0.46839 0.89646,-1.74437 0.89494,-1.75411 -2.17761,-1.63843 -2.18853,-1.64663 0.25041,-0.83548 c 0.13344,-0.4588 0.29966,-1.21116 0.37342,-1.68027 0.0753,-0.45943 0.15793,-0.87032 0.19275,-0.8958 0.0348,-0.0254 1.24339,-0.35869 2.69778,-0.73139 1.45436,-0.37271 2.65494,-0.69474 2.66292,-0.70594 0.0145,-0.0323 -0.14913,-3.45529 -0.18021,-3.65905 -0.0251,-0.16496 -0.38183,-0.21702 -2.73349,-0.45572 l -2.70536,-0.27136 -0.26576,-0.98122 c -0.14117,-0.54394 -0.37939,-1.281061 -0.50983,-1.627914 -0.14135,-0.355045 -0.25632,-0.664628 -0.26075,-0.693734 -0.003,-0.01949 0.90728,-0.911118 2.02374,-1.975113 1.11797,-1.054295 2.02965,-1.9363 2.02671,-1.955708 -9.9e-4,-0.0099 -0.46026,-0.731283 -1.01835,-1.59596 -0.80141,-1.253065 -1.04079,-1.552607 -1.17024,-1.51194 -0.0914,0.0346 -1.24363,0.547626 -2.5585,1.136501 -1.3134,0.598583 -2.39422,1.070358 -2.41609,1.053992 -0.0219,-0.01644 -0.26338,-0.265877 -0.55003,-0.557815 -0.28523,-0.282227 -0.85625,-0.786989 -1.26384,-1.10922 l -0.74004,-0.596889 0.83391,-2.599187 c 0.44973,-1.434083 0.81706,-2.646185 0.80817,-2.704402 -0.0148,-0.09701 -3.19357,-1.694003 -3.33539,-1.671228 -0.0756,0.01213 -1.14978,1.417269 -2.97218,3.886903 l -0.41921,0.554404 -1.06292,-0.23688 c -0.58254,-0.135081 -1.34908,-0.270467 -1.69336,-0.304646 l -0.63033,-0.06779 -0.13019,-0.535769 c -0.082,-0.285014 -0.33981,-1.466353 -0.57269,-2.611892 -0.2436,-1.153756 -0.47032,-2.131297 -0.51552,-2.173744 -0.0374,-0.05364 -0.86671,-0.02983 -1.83356,0.04593 -2.15565,0.157291 -1.99641,0.12175 -2.02204,0.334777 z m 4.14645,9.08594 c 5.36315,0.421145 9.63443,3.592233 11.47178,8.52596 0.47397,1.26589 0.84857,3.53184 0.80405,4.89094 -0.16507,5.84173 -3.83403,11.00359 -9.26669,13.04894 -4.17862,1.56565 -8.91061,0.96365 -12.41998,-1.59418 -1.24221,-0.90394 -2.19868,-1.90348 -3.09551,-3.2108 -0.83625,-1.22759 -1.32198,-2.253 -1.75196,-3.67504 -1.22309,-4.01845 -0.41441,-8.56193 2.16776,-12.147629 1.64747,-2.282497 4.12487,-4.141582 6.814,-5.120129 1.0847,-0.382933 4.13984,-0.80392 5.27663,-0.718062 z"
         id="path6-0-7"
         style="fill:#ffffff;fill-opacity:0.67;stroke:#6100ff;stroke-width:1.01298;stroke-miterlimit:4;stroke-dasharray:none;stroke-opacity:1"
         clip-path="url(#clipPath17284-4)"
         transform="matrix(0.46908344,0,0,0.41101576,-49.746122,-32.669758)" />
    </g>
  </g>
  <g
     inkscape:groupmode="layer"
     id="layer2"
     inkscape:label="Gear"
     style="display:inline"
     transform="translate(-2.1166666,-2.1166666)" />
</svg>
